GGPlot Examples Best Reference - Datanovia
…
Bar charts and alternatives

Data

df <- mtcars %>%
  rownames_to_column() %>%
  as_data_frame() %>%
  mutate(cyl = as.factor(cyl)) %>%
  select(rowname, wt, mpg, cyl)
df

## # A tibble: 32 x 4
##   rowname              wt   mpg cyl  
##   <chr>             <dbl> <dbl> <fct>
## 1 Mazda RX4          2.62  21   6    
## 2 Mazda RX4 Wag      2.88  21   6    
## 3 Datsun 710         2.32  22.8 4    
## 4 Hornet 4 Drive     3.22  21.4 6    
## 5 Hornet Sportabout  3.44  18.7 8    
## 6 Valiant            3.46  18.1 6    
## # ... with 26 more rows
…
